{"hash":"7e04430562af422e5d835c0d6941d04926bd3aad","data":{"author":{"name":"John Doe","path":"/author/john-doe/","bio":"Sociosqu placerat tortor vestibulum inceptos ligula faucibus fames nibh sodales imperdiet vulputate","image":{"type":"image","mimeType":"image/png","src":"/Gridsome/assets/static/author3.a68c322.fb3239b1ca9d78937c83c37a93ff5d81.png","size":{"width":150,"height":150},"sizes":"(max-width: 150px) 100vw, 150px","srcset":["/Gridsome/assets/static/author3.a68c322.fb3239b1ca9d78937c83c37a93ff5d81.png 150w"],"dataUri":"data:image/svg+xml,%3csvg fill='none' viewBox='0 0 150 150' xmlns='http://www.w3.org/2000/svg' xmlns:xlink='http://www.w3.org/1999/xlink'%3e%3cdefs%3e%3cfilter id='__svg-blur-04a0a55e708b790060cef226e360d768'%3e%3cfeGaussianBlur in='SourceGraphic' stdDeviation='40'/%3e%3c/filter%3e%3c/defs%3e%3cimage x='0' y='0' filter='url(%23__svg-blur-04a0a55e708b790060cef226e360d768)' width='150' height='150' xlink:href='data:image/png%3bbase64%2ciVBORw0KGgoAAAANSUhEUgAAAEAAAABACAYAAACqaXHeAAAACXBIWXMAAAsSAAALEgHS3X78AAAWpUlEQVR42tVaCVhV17W%2baN6Q9nvve/3ajG2TJjaKiqA4M8ggapRJkEEZHRKN0Ze0GdrGaEyisWkSX01rRs1gkhrT1KDgADLdC4JMIiKgzMjMZUZQ5N57/rfWPudcLldMVdC2fN/i7HvO2Wvt9a9hr73P1mhu419zZb6mp3SfaOsrMzWtFWk2rRU6hbRjWitSx8hX8Vu5n6bRV53S1Ogh86gu0PxL/ekrM8S1pSZfY6HoXR2lcTY3yqP9wiGbtoqUu6jvWNG/Ml3cbyuL1%2bir8/45FW%2btPDnYrtCNaStPGnsNOFVZPyAL30f0CL0znoAh0o5vrUx7lH4/SDx%2brK/K/s9h%2bVekjiUgBIit5SkC4H8Oi1dls8KDbl6eMnYQlIx76FkAKfkuKZBIVEykJzJ0VqdBJfptIuoiqiM6S3SC%2buyhvhsJrOkttUV3DQKhHSO8pOw4yc78J7A8xaysbLqmL2OD2p4sK5Cqv9x4CgMtObjanI1LdRnoIoXbKlLRVp4imYl%2bd1bp0F2Tjl56h9816HPR35SFDrpPfM4Rv98S2D8UoUC5Q1zLE0W%2b%2bAdaP3dI3Cvuv4UtamjJlZUtTzESGdjqREbF2tJ1yKS8Y%2bA%2bSl%2bJQTHq8xiICgLcUQmJMYq8f6D1y5M0zTXFbAllMNqd6DgjLKwobFKtzQqK9g2S%2br4CDANxlT2C2m2UKx5UvM/G2gB30PpZakyOVQazsLc%2bU1hcVfxmlb4uEEqYUPsqexbJPCDPCifGcAjQ7zsPQFtZojnzN9VX8VRX2EcACGuNkvIWJJm9qDzFxLmEAF%2bghMBY2SB3MCHqK0%2bZpyZlEJH9lLhE3I6%2b8oMgKKF1pZFDQZsk1wxxNjTbUDim3kHrU%2byr1q9vaGTrF/Sq1pfd9XYAoOYD4QU9F0%2byF3hZekHLxYI7EfunNA2lJy1iXxfCFlFif9hkR7WBILU9onygeEF/UzZ7wRG5Joi3YYPckRmhtVzLBY6m/fwhGyUJaq/QXC/H/lDrWyo9GgCooWABBE2bafZq9XlH3L%2b9UmsWRsJdu2rSzNNcq5Ktra0/XHvEAFC%2b4WKJDLBLDsvksfqKdDLObUyG7GY851rM%2b19fbc4RLmmZqK71gGS0XDg6eiDIgJsYfLo2k9I/VipQm9aSA7fT%2bqkkRC4%2bSBgtYFIvd1Rqldi0tr7i9pU6NJfEojb/E2qnDQmH0fAC2QC6JwcXTBmaxsbc2zH18UJHR9ZPUZKf9qUBKkqUMlfEvrViMgAn0XTuK1RnbkN7VYbwhhtOesMANSSkKO/I%2bUebKk%2bJsTa8JmmtSB99ADor4kXyE4VPQ/VYXqBwjU7zr2XhIw0NBQbgFNqKP0JV2q%2bgr8iAvixRgDAc6cuSiJJlL7lOHWCRBM05RyTDyjQHJS%2bNaWguvw0eUDFk6lvYU3uSB2pSB2JWovSE1HLhBGSKR/MFLbrPvYqLumhaDeagtz4X7dWn0GFF7dVZuETP%2bhqyaGWoFUC1XEig/glQ%2bTFv4UFCVooKgpoM35CTYcpYng6bq/JGN/m1VaVzAaQmv328xG3jBQ9ZTcR5WbzUXKmTLrXXwni5XTJd6YDxSjsMvc2kYCxi9z2D3W9E4fhnUSjXPoeSpBdxPlkmbvO9%2bM%2bj8N6OKMQdeAeNFZnUt4F4dEDwIp69HXVorkyTWJbIJ2VJDILpEhujIrW0pabg35V9CE17ecLoAdBEaJp3Y8QmR6peZODyZFN7dabU09mCnp4eyWAwSC36NhyJT5Q%2b/HQf9nz%2bFQ4fjUfRhUpc6TfhfEkhUmP/gFpdKKoTPFB9wksmatfpQqCN/T2Kiwpw%2bfJlFF8oReyxBOzZ9xWYV9zxE1JzSysMBqPEslgmeRJ7hACh%2b2I6J8P56gJNXayN3PWr8wjNZMu6P4qrMGF9Et7dVo%2be3iuk/ACycnLg6e0rjZsyFePsFaK2o7MrntiwEdl5%2beC/vu5G9Df8FVcrthG9jv76A3SvXjzLzT%2bDJzc%2bi%2bkubrDm47HYR8rMygLL6um9LHW3N6hJVQ2DP5trAirYWqpzR8P90zQtVbmi3FTQPcbrcpH9KVl1tTeir%2b8yuro64RMcil9Mtsc053mYOtdFJicXTJntJBQYP3U6Pv70UxiMQHevAZd6rwriNt/b%2b9nn4h1%2b1476cF%2bVD/N8ZLIDvINC0NnZiT7yku72JigFmLI2SK3SV%2bfcrYZBd9EXo%2bABFwvNGw8UBuNISF8HJSl2O47BjpYaGrwJZwvPwW7WXDjQYO3nOJuJlecrK8DPJ06fhdy8PBgG%2bkn5K4K4nXv6NCbNmC3e4Xct%2b6rEvPmdMwVnYTRK6Gi5SHkgWZl91GWy7nE1DFqqskdo/ZoztO5PsHT/p3jub5WXvVIrZWp9bSEGyHylZWXk6vOuGbQlEFOdXIWFD3z7rXD3pvKjaCqLFe1vY2IwYdoM8c5w/VUeDEJxSQmFgYlkF/HMoNQHqdeUxhy6I5z60oUHEAiq%2bx%2bX1%2bKpRhIo5vmmUprmyP17e3sRErkSj5GCqtsPp8TE6TORkX0a/T11aM8ORUdWEK50VyP79FlMnjHrexVn8ALDIjnhoru7C42lOqXilPcTZQ9ILW6orxkzaltlg%2b5/8iHeuu6s1smFh1KEsAXqK%2bTktv%2bbbyhO7a9xYVWBieS%2b87190Nzaja4Lf8SVgiD0FwSj6/xb0Ld1Y4GvvwgRftcaQObJ%2beWL/fuFrPrKM6I2UKpDaegeYtpMdYWoH0kYcEFhuevDdbdF6SsqNlodou7cMVwsPYP%2bAQmrn1qPhybawZGyuJoP%2bDrd1R0/nzARO3d/jIGeCnTmhOBKYYSgrpxgDHSXYtf7n4h3%2bF3LvszrYeIZvXYdrlw1obasAHWFR4XsIeVyecqAEgYvqkVRW/mJW9z1qStQdn%2bSzcUP79erKz8OgUHhWiR98CTqiqlqa%2bvFipWr8JDtJOGynLRsHWfiZ%2bNtEbZ6Ddo6etFzfgcGCoNgKIrGQFEUDIXBdO91enYJEWueFO9yH%2b7LPJjX8uiVaGrtQcOFFCS9v8Zqr8G8QjQq22XHlO8Gt75H0FJ5yhxDzTXn/o2YX%2biVY8yoTD3yIMSCJw1pH65BycFF6G5IQGd3PxUvXyIkahXcHl8C35DleGvXe9C3X0Zn9XeoS/VFQ3oIGtKCZaJ2XYoPOqr%2bKt55%2b933RR/uGxK1Eh9%2b8qXg2d2Yggsxi6H7YCVne/OKUwFD5AFlOqylQui/R5wHBjc%2bdI7DbXWrwturdEh5by0qD3njUn4QGvPfxJUucvPOdjQ1t6CtrR0DfY1oPf9nSnrLUJ20DNnfLMHp77wFcbsqMVA8ay3ZRe/Wiz7ct7OzA/3dlWg88xZ68oNRHeuD5D%2bvJtC1g0tuqy10%2bWuSzmlEO0VcRVnEfxDHlrrrOxSAZHTUnETaR08j%2byMvmEpXojcvEC0nl6EpewOa87dCn/8CKo4HImePB1J2LkL8Di8c37EACe8sFMRtvsfPsj/2QPmxAOrzvOjblL0RzcSrNy8AEvHO3bMA2g/W0foiffi9BcoDxlb%2biqQNV/PALVaA6ZZr/9%2bYd34str3EAGgx1FWXhZz9LyHuFWd054bDUByNfk5wBaG4ejYITSlLcXz7fBz8nScOv%2bKJ2K0e4t2E7U6CuM33YukZv3Nsmycak/xxlfIE82BeA8SzJy8cR191RtaXL6KrNkvItkqCHAYGXqjRmLdY5rBbcH8tA6CEQOqbIgGWpxqsd32pEkPnxUycT9qNmJdckPXRElw5SyCURNI1gq5RyHh/CWI2eaDogB9aKd47MsPQkb8JhtqPYKj7mNqbxb3W9GAUf%2bOPmJc9kL57MSkdJfMojhQgZO/xxne/c0Zxwi4hk2UPs21uUJL1HxUPGDMaHrDluh6g5ICGwlhy5SU4vNkd2l2LUJ8YhKtFEdCnheDwFg/k7PUGyqNF8VOa9zkaG2pQX3eRqBYN1K4s2I9OsjDKo5D3mQ8ObfZAszZE8GhICoLu3UWC97Hti1B3JoZkDrO9pniAPFbt9pF5gPjmpuYA7YrhcoB1Hsj87BnEbnZG3Nb55M4e0BEQKRTjrExjSjBQGoWtGxzgOvNBPO56PxY63yOI2/Nm/RSb1ztAuhAlFOc%2byW8vFIpzaMS%2bQjw3uyB979O0DE5XdpFShtswVXPAGuUwxdjRmAWmKxuf1ltf5l3fjuqTqMr6CynviaOvz8fR12jAWzzF70PkAZdywlAY54cFTg/Ax%2b1Bop/B2%2b2ngrjN97yc7kfBYV/05YVRrvAQfZkH8zr2OoPqjoqT%2bwTY13F/8dVI3i3WuY5oFmivSB0871Od/x/EvEzZeTENFwY8oI6aDOR8/RIObXKiAS8wD/y7Te6oiQvEX3a6wnXGvfD0uA9u8%2b7FfJf7BXGb7/GzL99xQe3RZZQz3EVfmccC4jkXp754TshQrT%2bM%2b5t65DFW66tyfjgq6wGLPPCOEgYDw30AlXeAtWgpTULynyIQ%2b7KzGQR24ZS3FmLTGju4zboPu71cULA4FN8EeOEAEbc/8JoHd3q26Qk7pJLrc5%2bjr7E3LRCun/h/IWgqiafyVzec65s/mQ3In893j2gKtDz%2bwie9lKT4GAnob1e/A1h8BLX8AMLJqaEwDok7Kfm97CQUYBDiX/PCJy/OxZ4QVxiDn8b5/w1G4msLBBU9GwRT8AZ8GjwPe1%2bYI949olielU/4gz/q8g/Kc7/i%2bhYgSG1DF0NGPqKjur96hOfWwqD0mLoeUL1gt1hsDOMFZhA4FGigjUVHqWRdI8Ih7hU3GYTtXkgkpY5QQovZ5oY4sjBTzDZ3uucpnvE7/O6Rre6ib/K74agriBkS99dUf/JVXQjtVb5gj/xbob4mV9NRFmveENVXnfoRCapX4sz6IIRkrsnLkiWaGum%2bVio88rZ04u1AE80K0uHNnM09pCOk9LFX5fgWMU5tvhe71VPipBe7xV06vsPblH/wdUlPvAhQSd35UWVYKW%2bUN0VTW1qrMu9VtvJsukoPjt7BR4ujMIsZAPMH0UESh5sU7%2bANUxN/LuuqzUQ7rRYLY6KR9r6XlEi5gGObM3zcKwpR%2b8irnkh4k8rcP82X8g%2bEoeV8PLivrDTzknlbHLaSLDN/bx2fT9D5W46Vv2WMghfkmc/gWITCNiUh9jMQfMRNPt6WA1PbaflIXG0GOsQHjiTyhoz2xqz1/Re1/ihPCJTOxy3F2b/54vR%2bH5z%2biw8K/uqLklh/lMUHSjWp/mjKWne1vTqjnfsyD559%2bASKzDtHyGKZyjG7fsX131JcXxljqhj7KH0YSVcPPlqWyonoKVTjsJtPiVCp/F1LWeq7jeeTX6wrTgrurDk5q79B92hpOX54uSAi31AUCX1mqLGRSt46XRBqFapLoxUk3eNnA%2bciQO8WVZbU/dflhrRHOmsyZhKvIOL5AvHeRTIOkqwzLJNlo7uQlddZHM60sRzzqB%2bF5W9vioCf8SKJ3G5ebXHKPV99tffu7%2bvfXxiejcqVuHouwshrhcsF4eg7IxO3%2bR4/Q8VKqvvDv/esy74v9tx9sTj5JyTbRYyhMv1hq7Hd3lOhLeXa6x58jly7fvKS5avWeAaG75rgGnDug53Lz6EiMravILx7oIgXSOESL2yGI342QLU/vXuJ%2b%2bx9d3kh8Sj2CAj/k/fyVU9ErltvB2D45XtZqs1tPzj5m02/1hzY/6lov7r9tbvKz6aJeFv3zIYfLwyOfNZtafgpF9%2bwAdelUZjrG4ZxLoHIiY0A6leJVR0pKSmKDksyEOES7xOidiWKT0TC1m0ZZnuHgXkybzf/8OwFQZHPPbFx/U9Y9qXGs2O3bntNnCWOjflS8/Rzv7o9yrv7h9H/qaI9Z8kKc4XltSziWVe/sMZ5AdFw9ouEk08YZj4eYpzqtXTgl05%2bxpefX2JEZZSB3Fzqk13dAgSz5c0ewOHQkx8uoTrKELM3yDje2c/kMH/pAPNk3iyDZZHM5vmBEc8DfxOWn7V4cEzO3stHV/kloVHmNikv0PZdEf2YO1mcB%2bPkG4653isMNEAjXSWH%2bQFMsPf0l35u6yi9t/1xoCIauBAp4r2XY79gKPUq%2bcBYTNaviobu60DYz5wpTZrnK031CgDznEO8FRkGlsmyaQx5i0OjJvGY6Jn5VPnSiFWjo/zCoCjNONdlou3qHy4EkAvOJwt0u/hHseIDJNhEV7a%2bNH1hkGTvuVQGwMMP4%2bwc8cCjk7F2pTvyY4NhKokCeQRQRlQaKRO3K%2bR7F7UrsOOlRRg32R4P2TrAwcMXMphLJUfizTIUWSxzgMdAodFHQCzmsbn4yWPU3Osmxj6ivw2/WquhuJbdyjdMuJizz4qFLNzZN4IHwcozCGJgsxaHsvJwYOJBu/thwtSZ%2bKWdA%2b79xWQ8OskBy4Nd8PaWRTi8xx8Z3wYh62Aw4j9fig9/vwTrVrnBYYYjfvLwJDwy0Z76zsAUdxkA5sm8WYYCAl/lMZA3iPDwWeHDY6RnYqwEzMgACF0t9hQ0noERYxXLz3EmF1QEGiyVZ6tM9QqENQDjCYDxUxwxwcGRrOqA%2bx6ZjHsIjPsftcODv5TpgXF2AqB7Hp6Mh21JcftpGG/viPEOM68BgGWo3mYBAo0lnAAIkxYFR4l9AM8Aecyhq1bfmvLBK2Xl/cKiRZJZ9dQTP3L1C7%2boJDqDItg8CEpSsvKyu0INgQlTZ%2bExAmC8/XRBtg7TBRjjp0yj%2b1MVmkZKO8rPlPdEHwKPeVjynEJXlqWCbwmCs18EXPzCmpavXnOvkrtsbtn6q59%2bUqONeUMz2SNYFBceARGfuQasVGNetbywhmIRTF8UNNQDPPwxYdpsMwCWQFyPLN9l8JiHpQdQjjHLVOU6DY6FpmCRGL/mMY93XTYGFe9pVj715M0p/%2baO55QEGCmUpyzr7ELokgCTleuploC1F6hWm%2bA4R1jYUsG/R/J75BXT5lzDb%2bai4CEyLa5qKJpc/SPweEiUpxK2t7As/sE8zfZtz2oemLFUdCZED3G2tXR9a%2bVnL1k%2b1P3FNRC2053wmN20v2v5azyB%2bkxwnCt4WPJkoukQzpSHnJXkp%2bYENRR4rDTm4zz2u229bd7c8eubdP/1a83W9w%2bPtuUKbK63WfG/a311oA6UsCbOdL1lAGxnuAgeZn6KJ0zxoFBYEISpBI5FPhiSkGnWkpaERouzg/OXRYyJXrf25kCghDdW6fwix5VS6HC8YTgA2CrXeAANftJsj1sGYOJsNzMAzHMq0cR5Poh4%2bjfIyM7FF9/EYEHwaiHbakwGORdEbLWcwm/474XfbtSMcw4UHjDPPzxBcX%2bjdexbJ0EqVK4BYLLTAjMAN5UEqc%2bkufPNAPD0Z%2bvijdC1v0ZufgGy884gNT0TL72xE7MUL7DIBUYeMxlRrN4emO5n88zzG2%2bi%2bguWp4/AqFX/Q%2bhVK0WPydr9rb2AipRrALBzXTwkCd6MB9i5LBriAXY0I7gHRmNh6BPC6jwjzBoaAmqYikKNxl5HJbE4Sb4o5CamRK9lcvxTp4kU//1zrRLf9Tzg2mIoEFPcfEihGTdkfWsvmOLmLXhYFkGzCWQGeq6F28%2b1CgE5D4RxiWyg2cD%2bpmcDqvzGKEDMdQsQ9b7xegBYgzCDpqkhUxfXAlbF0A0BIGoAP4WPDADzdv4eDxwKwAqjGy2WSAd3y2r2hv6cfFaMUa5OrmLBQ%2bWvzwrcCABzLKbDW50KOWRsxRQYMGQGYN7W8oYnfh4mEiG1PRRdhgXg/wG87CM58tSANgAAAABJRU5ErkJggg==' /%3e%3c/svg%3e"},"cover":{"type":"image","mimeType":"image/jpeg","src":"/Gridsome/assets/static/benjamin-voros-U-Kty6HxcQc-unsplash.09b17d9.69d6a93469abc0fb42ec5180d19215be.jpg","size":{"width":2560,"height":1709},"sizes":"(max-width: 2560px) 100vw, 2560px","srcset":["/Gridsome/assets/static/benjamin-voros-U-Kty6HxcQc-unsplash.1b91758.69d6a93469abc0fb42ec5180d19215be.jpg 480w","/Gridsome/assets/static/benjamin-voros-U-Kty6HxcQc-unsplash.3df3210.69d6a93469abc0fb42ec5180d19215be.jpg 1024w","/Gridsome/assets/static/benjamin-voros-U-Kty6HxcQc-unsplash.0b85c65.69d6a93469abc0fb42ec5180d19215be.jpg 1920w","/Gridsome/assets/static/benjamin-voros-U-Kty6HxcQc-unsplash.09b17d9.69d6a93469abc0fb42ec5180d19215be.jpg 2560w"],"dataUri":"data:image/svg+xml,%3csvg fill='none' viewBox='0 0 2560 1709' xmlns='http://www.w3.org/2000/svg' xmlns:xlink='http://www.w3.org/1999/xlink'%3e%3cdefs%3e%3cfilter id='__svg-blur-b17a724702b6ef1f88cd9ef948b0e42f'%3e%3cfeGaussianBlur in='SourceGraphic' stdDeviation='40'/%3e%3c/filter%3e%3c/defs%3e%3cimage x='0' y='0' filter='url(%23__svg-blur-b17a724702b6ef1f88cd9ef948b0e42f)' width='2560' height='1709' xlink:href='data:image/jpeg%3bbase64%2c/9j/2wBDAAYEBQYFBAYGBQYHBwYIChAKCgkJChQODwwQFxQYGBcUFhYaHSUfGhsjHBYWICwgIyYnKSopGR8tMC0oMCUoKSj/2wBDAQcHBwoIChMKChMoGhYaKCgoKCgoKCgoKCgoKCgoKCgoKCgoKCgoKCgoKCgoKCgoKCgoKCgoKCgoKCgoKCgoKCj/wAARCAArAEADASIAAhEBAxEB/8QAGwAAAgIDAQAAAAAAAAAAAAAAAgQDBgEFBwD/xAAsEAACAQMDAgUCBwAAAAAAAAABAgMABBESITEFQQYTUWFxIqEUMoGRorHh/8QAGQEBAQADAQAAAAAAAAAAAAAAAQMAAgUE/8QAHhEAAwEAAgIDAAAAAAAAAAAAAAERAgMSEyFBUVL/2gAMAwEAAhEDEQA/AKmqYo9O1TBazozXbpxoL6awVpnRQ%2bXTQguyYO4xQFK2N2UcQrGDpjjCajyxyST98fpSpSimNCzJUMkdPFKjZPamgbDSK1F94i6dZ3IgeRpHGzGMagnz/lVzrfiua4aW36cPLgxpMuPrb49P7qshcYGK8uuX8lZDrtrPDdxCS2kSVD3U5qYpXJLYyI%2bYndGPLIxU/amZL25TYXMzMO5csRT5QUOiG/s/xzWhuY1mX8wY4C/J4pS96vbRO6WbpdeWfrkU6YwO%2bGPJ47VQEUjLTSYLHJHdqmnuXniEUarHbrwijv7%2bprR72/mFM640nVS6WfXbS5idisiaBlyRlRt60rF4m6fM7KPNXGeU5%2bKpuXVArMQD25%2b1eSUQO2k7Hk96fJomuv0KpHIrHQM7dzx70aRuSPqyfYVL6DsTvWZjpZVXYZHFTkDs2SwKYkYs%2bpuwxxS6wsd2OT7VnJ1UTE6TvW0CsLCqRqIz%2b9eLDsNvegi3Uk8%2btFyDntSakdzIIotR3wNqRiuQVYTZ1Vs2AKMSBsCRtSbwxmRcqN2x/Gp6TvorxvMjP//Z' /%3e%3c/svg%3e"},"facebook":"https://www.facebook.com","twitter":"https://www.twitter.com","linkedin":"https://www.linkedin.com","belongsTo":{"totalCount":7,"pageInfo":{"totalPages":2,"currentPage":2},"edges":[{"node":{"id":"a1be9889a6c51624500fd8931fde26d7","title":"Cunctas non toxea inpatiens in virorum surdaeque","image":{"type":"image","mimeType":"image/jpeg","src":"/Gridsome/assets/static/sergio-souza-mvb51ThjvRA-unsplash.4250cd3.21c81be30c0705f173d0a2b3e99d5aff.jpg","size":{"width":800,"height":450},"sizes":"(max-width: 800px) 100vw, 800px","srcset":["/Gridsome/assets/static/sergio-souza-mvb51ThjvRA-unsplash.1b91758.21c81be30c0705f173d0a2b3e99d5aff.jpg 480w","/Gridsome/assets/static/sergio-souza-mvb51ThjvRA-unsplash.4250cd3.21c81be30c0705f173d0a2b3e99d5aff.jpg 800w"],"dataUri":"data:image/svg+xml,%3csvg fill='none' viewBox='0 0 800 450' xmlns='http://www.w3.org/2000/svg' xmlns:xlink='http://www.w3.org/1999/xlink'%3e%3cdefs%3e%3cfilter id='__svg-blur-f01982a1c32d42246db5b85a4f3488f9'%3e%3cfeGaussianBlur in='SourceGraphic' stdDeviation='40'/%3e%3c/filter%3e%3c/defs%3e%3cimage x='0' y='0' filter='url(%23__svg-blur-f01982a1c32d42246db5b85a4f3488f9)' width='800' height='450' xlink:href='data:image/jpeg%3bbase64%2c/9j/2wBDAAYEBQYFBAYGBQYHBwYIChAKCgkJChQODwwQFxQYGBcUFhYaHSUfGhsjHBYWICwgIyYnKSopGR8tMC0oMCUoKSj/2wBDAQcHBwoIChMKChMoGhYaKCgoKCgoKCgoKCgoKCgoKCgoKCgoKCgoKCgoKCgoKCgoKCgoKCgoKCgoKCgoKCgoKCj/wAARCAAkAEADASIAAhEBAxEB/8QAGwAAAQUBAQAAAAAAAAAAAAAAAAEDBAUGAgf/xAAzEAACAQMDAgQDBQkAAAAAAAABAgMABBEFEiExQQYTUWEiI3EUFlKRoTIzQmKBkrHB8P/EABcBAQEBAQAAAAAAAAAAAAAAAAMEAgX/xAAiEQACAgECBwEAAAAAAAAAAAAAAQIDEQQSISIjMkFRYRP/2gAMAwEAAhEDEQA/AMHDrciYwCSfTPFWWk6pqd5MRHLGvtINo/OqCOWCFfgTzCSAM8CpSai4MgiAj/hGw/7NT2Rj4Q1cpZ4mtub3U7aJWaa0Qfi83PPsKZ%2b808cfzJDIw7ocD9ayk11FuJeR5vh4JJwSfc1wuyS3AkaMBxhRuI5Hc4qf815Kd78GjPi2c/vLgxgdFADGoNz4quTIGhmumPcs4UfkKoZNNVRHunVHZN%2b1jzz0GMdaYmsTDIym8gJB7t/k1tV1mHZYbC38QXV0vyrpkk/AwGT9D3qXFrN1HIUu5ZWP8pCkfrXn4mWF8CRH9wTipjawzpuk8t2Axlhz7dDRy0/pG43%2b2ZxLqZekr/3VLj1KYIQ4SQE7juHfGKq6UGug4pkKk0aSyuEuoyBvjihAc4AJ9D1/4UkO24uUDlkAODtVdoGfr0FVejXBh1CAlsKWCsCeCDxz7VZHel7DGVilYtgYUDv60ElhseLzFE7xFKDqs5B3xKQikR5VVwAME/0ri%2be3iMP2hY2MsQ3/AAkHrg8j9k8dMGk11mk1NwLdJPMAYfKJHTBxg9Pemp72G1tMSQQxXBJ%2bX5eTtJ75%2bn1oY52xHljdNsZv9FdHQ2En2iOUb4wCNxX1qqmiuIDiWJ0I7EU/Nq8stv5TpGSH3LJjDAenHahtYuJQwuMTBgFO7uB0Bx6VRBWJcxPN1t8vAqhSjrRRTAHSMyMGU4IOQa0ulW0YdZgDvSbYPTGcUUUV3axae5B4suXj1uUR4jAXI2ZGOMVmpHaRyzsWYnkk5oorOmXSi/hvVPqyX04zRRRTk5//2Q==' /%3e%3c/svg%3e"},"path":"/posts/cunctas-non-toxea-inpatiens-in-virorum-surdaeque/","timeToRead":2,"featured":false,"humanTime":"03 Sep 2019","datetime":"2019-09-03T00:00:00.000Z","category":{"id":"Health","title":"Health","path":"/category/health/"},"author":[{"id":"author3","name":"John Doe","image":{"type":"image","mimeType":"image/png","src":"/Gridsome/assets/static/author3.6370538.fb3239b1ca9d78937c83c37a93ff5d81.png","size":{"width":60,"height":64},"sizes":"(max-width: 60px) 100vw, 60px","srcset":["/Gridsome/assets/static/author3.6370538.fb3239b1ca9d78937c83c37a93ff5d81.png 60w"],"dataUri":"data:image/svg+xml,%3csvg fill='none' viewBox='0 0 60 64' xmlns='http://www.w3.org/2000/svg' xmlns:xlink='http://www.w3.org/1999/xlink'%3e%3cdefs%3e%3cfilter id='__svg-blur-57d859a67fb611a9a25e06190a0f50a2'%3e%3cfeGaussianBlur in='SourceGraphic' stdDeviation='40'/%3e%3c/filter%3e%3c/defs%3e%3cimage x='0' y='0' filter='url(%23__svg-blur-57d859a67fb611a9a25e06190a0f50a2)' width='60' height='64' xlink:href='data:image/png%3bbase64%2ciVBORw0KGgoAAAANSUhEUgAAAEAAAABECAYAAAAx%2bDPIAAAACXBIWXMAAAsSAAALEgHS3X78AAAXCklEQVR42u1aCVhV17W%2bYN6Q9nvve/3ajG2TJjaKiqA4M8ggaJRJkEEZHRKN0Ze0GdrGmJhEY9MkvprWjJrBJDWmqUFxAmW4gCCTiAgqMzJzmREUuZfzv7X2OedyuGCigrb9vt7vW5zNOWevtde/hr32Plun%2b9fvX79b9mssz9N1Fe8WbUN5hq65LNWquSxFIb11c1mytXwV/yv3U3WGipO6KgNkHpX5/1xKG8rTxbWpKk%2bnUfSOtuKDVtfLo/XCfquWsqQ7qO8Y0b88TdxvKYnTGSpz/zEVby4/MdAuS7FuKU0YMwSciswfkIXvIXqI3hlHwBDpxzWXpz5M/99PPH5sqMj6z2H5lyWPISAEiM2lSQLgfwyLV2SxwgNuXpo0ZgCU9LvoWQAp%2bQ4pcJyoiMhAZGyvTIVK9H8/UQdRDdEZomPUZyf1XU9gTWuqLrxjAAi9tfCSkqMkO%2bMfwPIUs7Kyabqe9HVqe5KsQLLhcv1J9DVl42pjFi7VpKODFG4pS0ZLaZJkJvq/vSIFnVVp6KZ3%2bF2jIQe9DZloo/vE5yzx%2by2B/UMRCpQ7xLX0uMgXf0fr5wyKe8X9X2KLGptyZGVLk0xERrY6kUmxtnQN6lfeMXIfpa/EoJgMuQxEGQHuoISEtSLv72j90gRdY1URW0IZjH4b2k4LCysK96vWZgVF%2bzpJfV8BhoG4yh5B7RbKFfcr3mdlaYDbaP1MNSbHKIOZ312bISyuKn6jSl8TCCVMqH2VPYtk7pVnhWPWHAL0/%2b0HoKXkuDnzN9RW8FRX0EMACGuNkvIaksxeVJrUz7mEAPdSQmCMbJDbmBAN5SfNU5MyiMheSlwibkdf%2bQEQlNC6Us%2bhoE%2bQa4aDVjTbUDgm30brU%2byr1q%2btq2fr53er1pfd9VYAoOYD4QVdF0%2bwF3hqvaDpYv7tiP2TurriE5rYTwlhiyixP2yyo9pAkNoeUT5QvKC3IYu94JBcE8RZsUFuy4zQXKrnAkfXen6/lZIE9Vdorpdjf7D1tUqPBgBqKGiAoGkz1U6tPm%2bL%2b7eW683CSLhLR1WqeZprVrK1pfWHa48YAMo3XCyRAbbLYZk4xlCWRsa5hcmQ3YznXM28/9XVxmzhktpENdQDEtF04fDogSAD3s/g07WRlP6xUoFaNZ/beyutn0xC5OKDhNECJvlyW7leiU1L6ytuX56CxnOxqM77mNqpg8JhNLxANkDK4wMLpnRdfX3OrZj6eKGTQtZPUpKf/oU%2bKkqUMlfEvqViMgAn0HD2S1RmbEZrRbrwhutOesMANSikKO/I%2bUefLE%2bJsVa8JmkuSxt9ANrL4kTyE4VPXeUYXqBwjU7zr7bwkQaHAgNwEi1FH6Ii9VcwlKXDUHJcgDAcGUoSiBJlL7lGHaBJguacI5Jheaq9kpes6xpLb4EHlA2a%2buZ3VZ/ggfarAzErUXxMarpwDDLFofGCHp1nX8HFlGhaDWajuzYHrZUn0WZBrZWZuETPeuoyaWWoF0A1XYin/vFQ%2bTFv4UFCVpIKgpoMX5eTYdIYng4bK3JHN/m1VKRxAaQmv928xG3hBQ9ZTcR5SZzUWJ4iXWqthulyq9R/pQ2mK60wdjeSgrGI3f0UdrwehaOfRqFU/wzOJTyP84kycZvvxX0WhXe3RuHg3rdRX5ZBfeuIRxsEL%2bLZ3VaDxvJUiWWJfFKSwCD0X2JjlCUXN1Xl/7uyD6FrLY0fPQAaCE3zbozY5Eg2iAxcmtjfWpkhdbU3oaurSzIajVKToQWH4o5LH3yyGzs/%2bxIHDseh8EI5rvT24/y5AiTH/gHVKaGojHdH5TFPmahdkxICfezvUVSYj8uXL6PoQjFij8Rj5%2b4vwbwOHj0mNTY1w2g0SSyLZZInsUcIEDovpnEynKcu0NTF2shdvzKX0EzU1v1RXIUJ65PwzpZadHVfIeX7kJmdDQ9vX2ns5CkYa6cQtR2cXPDYuvXIys0D/3o669Fb91dcLdtM9Bp6a/fSvVrxLCfvNB5f/zSmObvCko/7Qh8pIzMTLKur%2b7LU2VqnJlU1DP5srgmoYGuqzBkN90/VNVXkiHJTQfcIr8tF9qdk1dFaj56ey%2bjoaIdPcCh%2bMckOU53mYsocZ5kcnTF5lqNQYNyUafjok09gNAGd3UZc6r4qiNt8b9enn4l3%2bF1b6sN9VT7M86FJ9vAOCkF7ezt6yEs6WxugFGDK2iC5wlCZfacaBp2Fn4%2bCB1wsMG88UBiMJSE9bZSk2O04Btuaqmjw/ThTcBa2M%2bfAngZrN9vJTKw8X1kBfj5h2kzk5ObC2NdLyl8RxO2cU6cwcfos8Q6/q%2b2rEvPmd07nn4HJJKGt6SLlgURl9lGXySmPqmHQVJE1QutXnaZ1f7zW/Z/gub9ZXvZKzZSpDdUF6CPzFZeUkKvPHTJoLRBTHF2Ehfd%2b841w94bSw2goiRXtb2JiMH7qdPHOcP1VHgxC0blzFAb9JLuQZwalPkgeUhpz6I5w6ksTHkAgqO5/VF6LJ5tIoJjnG4ppmiP37%2b7uRkjkcjxCCqpuP5wSE6bNQHrWKfR21aA1KxRtmUG40lmJrFNnMGn6zO9UnMELDIvkhIvOzg7UF6coFae8nyh7QHJRXW2V9ahtlQ24/4kHeOu6vTJFLjyUIoQtUFsmJ7c9X39NcWo3xIVVBSaQ%2b87z9kFjcyc6LvwRV/KD0JsfjI7zb8LQ0gkvX38RIvyuJYDMk/PL53v2CFm15adFbaBUh9LgPcTUGeoK0TCSMOCCQrvrw3W3pvQVFRutDlFz9gguFp9Gb5%2bElU%2bsxQMTbOFAWVzNB3yd5uKGn4%2bfgG07PkJfVxnas0NwpSBCUEd2MPo6i7H9vY/FO/yuti/zepB4Rq9egytX%2b1Fdko%2bagsNC9qByuTSpTwmD59WiqKX02E3u%2btTkK7s/iebih/fr1ZUfh8CAcD0S3n8cNUVUtbV0Y9nyFXjAZqJwWU5aNg4z8LNxNghbuQotbd3oOr8VfQVBMBZGo68wCsaCYLr3Gj27hIhVj4t3uQ/3ZR7Ma2n0cjQ0d6HuQhIS3ltlsddgXiGalO2yI8p3g5vfI2gqP2mOocaqs/9GzC90yzFmUqYeeRBiwZOK1A9W4dy%2bBeisi0d7Zy8VL18gJGoFXB9dBN%2bQpXhz%2b7swtF5Ge%2bW3qEn2RV1aCOpSg2Widk2SD9oq/ireeeud90Qf7hsStRwffPyF4NlZn4QLMQuR8v5yzvbmFacChsgDynRYTYXQf484DwxsfKQ4DLfVrQpvrUhB0rurUb7fG5fyglCf9waudJCbt7eiobEJLS2t6OupR/P5P1PSW4LKhCXI%2bnoRTn3rLYjbFccDxbPmc9vp3VrRh/u2t7eht7Mc9affRFdeMCpjfZD455UEun5gyW2xhS5/TUpxHNFOEVdRmvgP4thSd30HA5CItqoTSP3wSWR96In%2b4uXozg1E04klaMhah8a8TTDkPYeyo4HI3umOpG0LELfVE0e3eiH%2b7fmCuM33%2bFnWR%2b4oPRJAfZ4VfRuy1qOReHXnBkAi3jk7vaB/fw2tL9KG31ugPGBq5q9I%2bnA1D9xkBZimXfv/xrzzo9n2EgOgxVBHTSay97yAgy87oTMnHMaiaPRygssPxdUzQWhIWoyjW%2bZh3%2b88cOBlD8Ruchfvxm9xFMRtvhdLz/idI5s9UJ/gj6uUJ5gH8%2bojnl254Tj8ihMyv3geHdWZQrZFEuQwMPJCjcb8kjaH3YT76xkAJQSS3xAJsDTZaLnrS5UY2i9m4HzCDsS84IzMDxfhyhkC4VwkXSPoGoX09xYhZoM7Cvf6oZnivS0jDG15G2Cs/hDGmo%2bovVHca04LRtHX/oh50R1pOxaS0lEyj6JIAULWTm98%2bzsnFMVvFzJZ9jDb5kYlWf9R8QDr0fCAl67pAUoOqCuIJVdehAMb3aDfvgC1x4NwtTAChtQQHHjJHdm7vIHSaFH8FOd%2bhvq6KtTWXCSqRh21y/P3oJ0sjNIo5H7qg/0b3dGoDxE86hKCkPLOAsH7yJYFqDkdQzKH2V5TPEAeq37LyDxAfHNTc4B%2b2XA5wDIPZHz6FGI3OuHgpnnkzu5IISCSKMZZmfqkYKA4CpvW2cNlxv141OVezHe6SxC35878KTautYd0IUoozn0S35ovFOfQiH2ZeG50RtquJ2kZnKbsIiUNt2Gq5oBVymGKMaMxC0xTNj4tt77Mu75tlSdQkfkXUt4Dh1%2bbh8Ov0oBf8hD/7ycPuJQdhoKDfvByvA8%2brvcT/Qzerj8VxG2%2b5%2bl4L/IP%2bKInN4xyhbvoyzyY15HXGFQ3lJ3YLcC%2bhvuLr0bybnGKy4hmgday5IHzPpV5/0HMS5Sdl/7hwoAH1FaVjuyvXsD%2bDY40YC/zwL/d4Iaqg4H4yzYXuEy/Gx7u98B17t2Y53yvIG7zPX72xdvOqD68hHKGm%2bgr8/AinnNw8vNnhAzV%2bsO4f3%2bXPMZKQ0X2D0dlPaDJA28rYdA33AdQeQdYj6biBCT%2bKQKxLzqZQWAXTnpzPjassoXrzHuww9MZ%2bQtD8XWAJ/YScft9z7lwo2cbHrNFMrk%2b9zn8KnuTl3D94/8XgoZzcVT%2bpgzn%2buZPZn3y5/MdI5oCtcdf%2bKSXkhQfIQG9rep3AM1HUO0HEE5OdQUHcXwbJb8XHYUCDELcq574%2bPk52BniAlPwkzj/v8E4/qqXoMKng9AfvA6fBM/Frudmi3cPKZZn5eP/4I%2bavH3y3K%2b4vgYEqWXwYsjER3RU91eP8NxcGBQfUdcDqhfsEIuNYbzADAKHAg20vvAwlayrRDgcfNlVBmGLJ46TUocoocVsdsVBsjBTzGY3uuchnvE7/O6hTW6ib%2bI74ajJjxkU90OqP/mqLoR2KV%2bwR/6t0FCVo2sriTVviBoqTv6IBNUqcWZ5EEIy1%2bQliRJNjXRfLxUceks69lZgP80K0oGNnM3dpUOk9JFX5PgWMU5tvhe7yUPipBf7kpt0dKt3f96%2b1yQD8SJAJXXnR5VhobxJ3hRNbmquyLhb2cqz6ijeN3oHHzVHYRYyAOYPogMkDjcp3sEbpv38uayjOgOttFosiIlG6nue0nHKBRzbnOEPvqwQtQ%2b94oH4N6jM/dM8KW9vGJrOx4H7ykozL5m35rCVpM383TV8PiHFXztW/pYxCl6Qaz6DowmFzUpC7GUg%2bIibfLwtG/0tp%2bQjcdXpaBMfOBLIG9Jb6zPX9l7U%2b6M0PlA6f3AxzvzNF6f2%2bODUX3yQ/1dfnIv1R0lcoFSV7I%2bGzDVXWyvTW7kv8%2bDZh0%2bgyLyzhSyWqRyz61Vc/03F9ZUxJouxj9KHkTT14KO2VD6OrgI1Djv5lAiVyt82lSS/U38%2b8fmaooTg9qoTM3vrUh4uLsUPL%2bdH5BkLI2HICDXVU8lbkxKEaoVqUmkFSff4Wd/ZCNC7heXnav7rcl3qQ%2b1V6TOIVxDxfI54bycZ%2b0jWaZbJstFZwMqnaA5nWmnHPOpHYfnbmyLgZ7xIIrebW12UdNeXX%2b6687v69xaEZ6F8Oa6ejTDxWuFyfjh6TsvEbb7Hz1C2nOr%2b8O8867L78513XixK/AnJdhZjKE970GJst/ZUaFOp/poHnyNXr520aOmKVR6B4dvHuwScfX/b0rMoi4ztyQ/v7CvkBVK4xAub4Yif9VHtT%2b9e4j673llaQDyK3APC/%2bS9dMVjkWvW2gIYfvlekmx1yw9O/mbDr3V793wi2q9sefWO0jOpIt7WPLXux/ODI592XRx%2b0tk3rM9lcRTm%2bIZhrHMgsmMjgNoVYlVHSkqKosOSDES4xPuEqF6OomORsHFdglneYWCezNvVPzzLKyjymcfWr/0Jy75Uf2bMps2virPEsTFf6J585le3Rnk3/zD6O0W0Zy9aZq6wPJdEPO3iF1Y/NyAaTn6RcPQJw4xHQ0xTPBf3/dLRz/Tis4tMKI8ykptLPbKra0AwW97sARwOXXnhEiqjjDG7gkzjnPz67ect7mOezJtlsCyS2TgvMOJZ4G/C8jMXDozJyXvp6Cq/KDTK3CblBdq%2by6IfcSOL82AcfcMxx3uZkQZooqtkPy%2bACXYe/tLPbRykd7c8CpRFAxciRbx3c%2bznD6ZuJR%2bYisj6FdFI%2bSoQdjNmSBPn%2bkpTPAPAPGcTb0WGkWWybBpD7sLQqIk8JnpmPlW%2bOGLF6Cg/PyhKN9ZliWi7%2bIcLAeSC88gCnc7%2bUax4HwnupytbX5o2P0iy81gsA%2bDuh7G2Drjv4UlYvdwNebHB6D8XBfIIoISoOFImbpfJ9y7ql2HrCwswdpIdHrCxh727L2QwF0sOxJtlKLJYZh%2bPgUKjh4BYyGNz9pPHqLvbVYx9RL91v1qto7iW3co3TLiYk8%2by%2bSzcyTeCB8HKMwhiYDMXhrLysGfiQbv5YfyUGfilrT3u/sUkPDzRHkuDnfHWSwtwYKc/0r8JQua%2bYMR9thgf/H4R1qxwhf10B/zkwYl4aIId9Z2OyW4yAMyTebMMBQS%2bymMgbxDh4bPMh8dIz8RYCZiRARC6Uuwp6DwCI8Yolp/tRC6oCDRqlWerTPEMhCUA4wiAcZMdMN7egaxqj3semoS7CIx7H7bF/b%2bU6b6xtgKgux6chAdtSHG7qRhn54Bx9jOGAMAyVG/TgEBjCScAwqQFwVFiH8AjQB5z6IqVN6d88HJZeb%2bwaJFkVjzx2I9c/MIvKonOqAg2D4KSlKy87K5QQ2D8lJl4hAAYZzdNkI39NAHGuMlT6f4UhaaS0g7yM%2bU90YfAYx5anpPpyrJU8LUgOPlFwNkvrGHpylV3K7nL6qatv/LJx3X6mNd1k9yDRXHhHhDxqUvAcjXmVcsLaygWwbQFQYM9wN0f46fOMgOgBeJapH2XwWMeWg%2bgHGOWqcp1HBgLTcEiMX7FYx7nssQaZe/qlj/x%2bI0p/8bWZ5QEGCmUpyzr5EzokoB%2bC9dTLQFLL1CtNt5htrCwVsHvI/k98oqps4fwm7EgeJBMzVUNxX4X/wg8GhLloYTtTSyLfzBXt2Xz07r7pi8WnQnR/Zxtta5vqfysRUsHu7%2b4BsJmmiMesZ36vZYf4gnUZ7zDHMFDy5OJpkM4UR5yUpKfmhPUUOCx0piP8tjvtPG2emPrr2/Q/deuNlvfPzzahiuwOd5mxb/X%2bupA7SlhTZjhctMA2Ex3FjzM/BRPmOxOoeAVhCkEjiYfDErINGtJi0KjxdnBeUsirKPXrL4xECjhjVE6P89xpRQ6HG8YDgC2yhAPoMFPnOV%2b0wBMmOVqBoB5TiGaMNcHEU/%2bBulZOfj86xh4Ba8Usi3GZJRzQcQm7RR%2b3b/nfrteN9YpUHjAXP/weMX9TZaxb5kEqVAZAsAkRy8zADeUBKnPxDnzzADw9Gfj7I3Q1b9GTl4%2bsnJPIzktAy%2b8vg0zFS/Q5AITj5mMKFZv903zs3rq2fU3UP0Fy9NHYNSK/yH0KpWip9/S/S29gIqUIQDYuiwclARvxANsnRcM8gBbmhHcAqMxP/QxYXWeEWYODgE1TEWhRmOvoZJYnCRfEHIDU6LnEjn%2bqdMEiv/eORaJ71oeMLQYCsRkVx9SaPp1Wd/SCya7egse2iJoFoHMQM/RuP0cixCQ80AYl8hGmg3sbng2oMrPWgFijmuAqPdN1wLAEoTpNE0Nmrq4FrAohq4LAFED%2bCl8ZACYt9N3eOBgAJaZXGmxRDq4aavZ6/o5%2biyzVq6OLmLBQ%2bWvzzJcDwCzNdPhzU6FHDI2YgoMGDQDMG9LecMTPw8TiZDa7oou1w8AdbZWro5yAlxGCfD7PcCcDL2WDISBmAncbgwAngFmyjOA6v7MczhZw4%2bHxyrPBNR2V3S5EQ8IUzxABuD7QmBIMlRqAvNM4DT/hgHg2UNbA2jn%2b%2b8bhxICigeEKR4wPAD/DyM107/UMiH0AAAAAElFTkSuQmCC' /%3e%3c/svg%3e"},"path":"/author/john-doe/"}]}}]}}},"context":{}}