{"hash":"e77d605073cd9948b3bc963e8c1e3188515dd47e","data":{"tag":{"title":"tag1","path":"/tags/tag1/","belongsTo":{"totalCount":4,"pageInfo":{"totalPages":2,"currentPage":2},"edges":[{"node":{"id":"f11d7ea21b8b34951b3b03e8f969f371","title":"Checklist","image":{"type":"image","mimeType":"image/png","src":"/Gridsome/assets/static/8.4250cd3.85194c2717d490baf395ea272de09c86.png","size":{"width":800,"height":450},"sizes":"(max-width: 800px) 100vw, 800px","srcset":["/Gridsome/assets/static/8.1b91758.85194c2717d490baf395ea272de09c86.png 480w","/Gridsome/assets/static/8.4250cd3.85194c2717d490baf395ea272de09c86.png 800w"],"dataUri":"data:image/svg+xml,%3csvg fill='none' viewBox='0 0 800 450' xmlns='http://www.w3.org/2000/svg' xmlns:xlink='http://www.w3.org/1999/xlink'%3e%3cdefs%3e%3cfilter id='__svg-blur-a49689ca2e43df8e3509d192fcaf4dd0'%3e%3cfeGaussianBlur in='SourceGraphic' stdDeviation='40'/%3e%3c/filter%3e%3c/defs%3e%3cimage x='0' y='0' filter='url(%23__svg-blur-a49689ca2e43df8e3509d192fcaf4dd0)' width='800' height='450' xlink:href='data:image/png%3bbase64%2ciVBORw0KGgoAAAANSUhEUgAAAEAAAAAkCAYAAAA5DDySAAAACXBIWXMAAA7EAAAOxAGVKw4bAAAOAUlEQVRo3tVZWXNbyXXmb8pD3pIHu/KQctlveclbXGU7LtspO3bsKpdn7JE0ikiRHC0znIXiyBPVSCRIgjtIkeIGLgIXgSRA7CAWYse9F3fFTvLL6b4ACFKkZ4lVim/Vqe6%2b3eh7ztdnbXQIioG/NuVlnbe5ggatcoJTACffgNj6EnWa%2b7Tv%2bdemjjexaVN4nYRfWdvEO%2b/%2bETdv3caNm%2b9/Jd16/zZfbxm2Qi5WueBvSvg3BgATXinVsLPnwj9895/wr795F/9%2bsxc/vtmDnxD96L27vOV0ozmm%2bRvd%2bPF73fjJrQ/wd//4HTwdtKBYB7KS%2brelAYzhMunx06fP8LNbPVgrAjNxDc%2bzNcznarAli3ieqZrjTAWzNF7I1TFH/ZmEAbsB/LdlFjdIa7RynQP6NwcAO7mx8Qn8uvdjTB3r%2bNKdwLAvgxGiZ940holGvBkMerP40pPGqD8DiyeJIVccExEJvRNL6Ln3ALJReaNm8MYAKBEAo9Yx/Kq7D7a4gbH1fYwG8xgPZLC4soFRTwojIREOtxMrDg%2bsQQEWv4inHgHjxxX0jL3A3d57rwGQl00SFP21/v87AKxWK37eM4CD0DrsNgsGAyrXglVPDBvRHJ4GRTg3nfDY7LAEJMz73Vh2rWI7vIXOCTu6ez%2b4BMC50Ixybf1zaqxl7deIHm8egO7H8CbtCHo/w5Q/imE66YVoHnYCYDiQg9Wfh5XMYSiowe0dhOz8Jdbd2%2bgcW3kNACagqJh91sqaDkk1qaCaAEn0/YJqtAD7qhD6hk1gHL/s%2bhC2YwOLO88x4XSRnedg8WVJeBKcABhhFCQiIEZdESz6fZiJltD5zHaFCehIiqbKZyQNG0cGfGkdRzkdoayObKGII1GHPyM3QHjbGjA2jl%2b8fw%2bjARkjhwJsAQErEQEzZAbDhyku/EJUxExYgJUc4RyNN5ManGIZA7bXNYCd%2bnKoiJlAjZwp7e8HOVGTZkKAL2tgmJzpvi%2bKSCIPQS1%2bpQN9cwBQJjdCGvC7rocIqXWEBRm7aQWOtIqXSRkrJPhSTIIjpdBYwWaC5jMqXOkCEloNo4trpAEmALmG8FE66XH/GSY9RUyuHWJsbhUjM8uwzG1g/SCO0SiZUSgJV8BHoVaCohhvFwDL6Bg%2b%2bvQRohTvfRTaCsUKMnoZOXaqDcrycZm3YVJvndawZ23jJe72tGkA5QJysYal3SAmpmbgPXShIIlQ5QKymTQca3Z8PruIg8U9JG5/iL1QELLOfqu93TDY/dEAnHtp2HeTKNdOcFKr4aReR53aOu/XcFo/QaVWxnzQCbVY5ABsOrZaAPDMktJip8uD53NzOD09xVVPhoCwPhuGYndCy6vIkR8Q3rYG9JEGUFaMHDmtcrWOUqVGVEWxbBIflyvUr6BSNWCUyjgjYezr5xogki0nsiKmbC9awp6enLSJfkagmONA%2bAgz9nUolUYG%2bdbyAOJnaMSKzwY%2bh0IMihLZpKri7OyMC9gS5Oysrc9kMcebW9voIgAKBIBK6fDK5g4O7BZeL7IldVocNurYKtQREmoos9STdj6huYlJG2LJLCQyq7cWBcpNAB4NcIEK2SxkIc/7J/US/NE4MgWVj9M5P4pyjPe9FLpS9Nqx9hLdd3tRKOjQ9DomxodwOPhDQqnK15VJUqcUwaOQhD8/FyFkyyaIRMv2DRx4AtxsvhkAjexJaMukmv1vC0B/vwmAK5hFICaYYIgJ2FZXsB/N0KGdImW/i2LCzucmgkE4k2Xsrazjgzu9kOMCZMoY52eeoLDzsKXyFZI0ILvRvxbEfkJqaRPTAMeOE9uvDjgAzAy%2bGoC2NLMlvHwJkG8LAJkAe0I5BTFKUk7rVWhGEWnSiGq1xs2hJAVQLyu870lJYG5we2cXnT2kARQh1MoZZqdHUAhMtwCoEgAhLYtxqjP8xYYJkXNkeyyurMHlC34DDWgTtFVgtIMgfzMQLgDwyARACKUoXCl0SqdcAEEtQdArvG8U4qgUC7yP0j61KbykKNDVTQCQHavkRTe2XsHr9Zkm1HCApcoJETlPIuZbmHNgvmGMfMBxRoCklb4GAO3Cs8RBKUKSMxRjo7RAuzD37QAwTcC5GcPCdoaf0CkxuRKh9FWh8FAVkTh6CTmxTyV0BQfRPiS1Oaw7XuEuAcCiANszIyoYn5xGrVptgaBpKgSRBC0UUG%2bAcuBy4wWZT/s9wuXqsb2K7Lhg74IK1RmGEg1A3fOhEMsirxXP/cDX1IImAINtAIRJtb2U/ZkKDASzEnTD4F49f7wHQ4yhShPP4xr2lDPKA3a4BsgNO2ZAeENRTE3bYOj6lXmAz%2bfH5PTsa/eIrwNwXlx1tE6YBC3E8jCWPdB3wjBWfVD248irxYtO8Qpn2U75SxrwyWePTHUtlVCjxKdaP0Xt5BRVprq1Os8NdFJxo0xzNF/WVe4YWSbY1cM0wLTjZjIUiBxjanYeL7d3EIvHcZxOw%2bf3Y35hEfOLq2bF2KgBzkE41wJRab9oNdo0gH6kxBIoUo5d9B6h%2bNIH3RshW73CIV4wG/qYUroWgE/7H6FK/Vxe4CqrauSVpQKngqKgRlkgU99agyp1U5XtlwBogiATWMJxBq9I4NW1TSyQujte7eMokeG%2b4uLJX7w0SUpFhPOUcgsVpKlyFJsmkCeHJCWTKAbdUCIhKIkwZGqN4yNoqbi50ZVhkjYp5IjIVNRKC4gWAMNmIkSWjrwowR0k31KQoRREKLIMTVVbic95UmemuesNJ6i03QznGwcleYJIr61BoZAph8MQyO4LgoLcJeHbb5AkEjacL2I3UcVhpgpvtoIUgdDREk4ihoIk/IEXmYgfInlczReCRAXH5ZsWE7QqJIrnxfQCtCgxE9uAlI/RXlTYSArPBAcJgEcDpg/4n60aBie9eLxESQvlLCKZRILV7BQSE6qGtKZTAkROi/sFKoY2HRcAyLWBkPT6EdlzY3duHkeObeQp5kvkU5rmelEDzu8SPOkS3Oky/CT8YbaKqFBqANBAVhQL0OMRlNIxlNNx6ORhRQol7JZFVtltTHNTUmMxDyVP5pKcg5FYghZfJieapQ%2bRFlCGVzs1AXjyxQDI4WPMFgBiW1hZP8LsYRVytYggqfSxTgDoJSSpZZSjWqBOxdLK%2bgZPhXkUkHV%2bwSE1eEjvOZFcX4N7chyJ/UNkyXTba/92at4QMb%2bQzYl0aJRYkemJggiZokcH27SJFttcjYZRCbkhEhCvEgXYIwKnnWMJx6LGNyvQZkZiGUZkAuXcKqq5RdKUFIFV4%2bCEszJSxVN8MTiCL/48AI1O9AsbVYO7dowuJLCTOIVULSFI34szAIwSgWTgmFq9WrtgAnqpSimzhv3kOS8rByGseKI49EeQdDrp9PPmASomUEweqeHoYhTZAlmWhBHv5Hfk4yTikSjS4RjUrICODQpNWfoASxqS5EjSh25EQ2FMe5IYdKUx5DZpkMjqycCdkimEKVgPBLHo8cJ%2bFEeIYrgm%2bBHMGZgLZDHsTmI6quFm/1MMNEwgnFBgBA8RScioUL5qUDxXqCrUGFVNkqk6VMpmTr9OJnC7qwdRstNZ2nPQlWrxMuShsS%2bPkagKhyeCjVAG82EBS%2bE8B6op%2bEIoj1HieeQwzdulcA7pWBIG1SSqIsNQZXQwwV7QwtWIeS3FhBw%2bNIn1Rxtkvk/zzVg76M7B4slTm%2bVMLRET416zP%2bxOtQDo7zfDYLlSRpFCXq1ulsOsBK5QW6a2xMriBhVLFf7/4AZFgV/f6ITVL8DiTrf44MQEIrKyazX6JpPB0nZQTJ4pn/m%2b%2bZuRQ3PO5s9gN57H2lEODgr7HWPeDP/hU0KYbTLiaQp%2b6aOXaIyDlW6BZnGfI80AmGkA8DlpALvj0BQVFU1GmVDXyLGKosjD3nWPg8rh/yQAxgNCS%2bDLPIw0wBhr8MyIyWNpHNLl9VYOROaCVnewzrQ/hxdhdmmZ40IMERhN1MzFqdaGTU141lLJFO%2b3AzbSBsDjx4/J2ekY3fNgaDeMx1sBWFxBOPYO4Ha54Nrfw8rePoa2j2g%2bhnF3BHt5jQDYwq/euwOLN8%2bFbPHSOKhzgZq8mPywPntnvebgLFxbTHnYmo5j8tosM%2bOlJOXoEjmdjXiBb8TQXI6IsMckzBA4HDV6P%2bnPwpVVwX4bl0t4lVIaWmAiP%2bRKYqqpAU%2bewOf24Xn/55gceIrVwQmsWJ/B9fPvIfhf/4Lgj74Dz73fYHn6Dqatv8XC5H9gy/kMqw4nuu/dg4ti92BDqMUjAWvEy1wwz7/F3luJR/Z9xgfjh/E16cu2Do1rdaNl43kyD7YHa9m44zoVPCLno5RrrTEDxy/oHBCjWn9tvUjx2hbMYZaYY45w7tjAex89xsfMCbI/MB72QOrrRekJJUYvl5Dv%2byNyn95E7v4foG7YcOb8N%2biz34Ux9feA9CUWN/dwt%2bsO3ztGvAhG9cItEhOYASIUq6/xwvhjc0yzF/iVewZzJHBOb1SN/OLpDBmtjA622dkVdCE5u5ytNZhoJ/YwTWLl6AnV5azQ9VKk%2bP4PfoA//eEd3Pn9u7j9%2b3fQ%2bc6fcPteH%2b70fELUh9udH5njGz9D1%2b1foPPWT/Hgwfv45%2b99H1NTUxeyw8u8tAtzmRd2YIwfNscAKddPrtyjo32TyxteB8xV7dk1Ka2T4vSdzjt4%2bPEneND3MVEfCfiA6D7uU3v/IdH9%2b/jgfh/uf/gpzfej624vZmamvzYv1/F11aG1r2cAXTCBs2uEuu7dZcEvMNi4ofm/PNed9lXf/0vj6wCrE3//C/Nf7vD5vORfAAAAAElFTkSuQmCC' /%3e%3c/svg%3e"},"path":"/posts/checklist/","timeToRead":1,"featured":true,"humanTime":"15 Jul 2021","datetime":"2021-07-15T00:00:00.000Z","category":{"id":"Feature","title":"Feature","path":"/category/feature/"},"author":[{"id":"author3","name":"Wikanda Chansereekorn","image":{"type":"image","mimeType":"image/jpeg","src":"/Gridsome/assets/static/profile.dea1acb.562df23351babefc8914f4504055f077.jpg","size":{"width":64,"height":64},"sizes":"(max-width: 64px) 100vw, 64px","srcset":["/Gridsome/assets/static/profile.dea1acb.562df23351babefc8914f4504055f077.jpg 64w"],"dataUri":"data:image/svg+xml,%3csvg fill='none' viewBox='0 0 64 64' xmlns='http://www.w3.org/2000/svg' xmlns:xlink='http://www.w3.org/1999/xlink'%3e%3cdefs%3e%3cfilter id='__svg-blur-23616ba2829d7cd455d9dc38cbb110ad'%3e%3cfeGaussianBlur in='SourceGraphic' stdDeviation='40'/%3e%3c/filter%3e%3c/defs%3e%3cimage x='0' y='0' filter='url(%23__svg-blur-23616ba2829d7cd455d9dc38cbb110ad)' width='64' height='64' xlink:href='data:image/jpeg%3bbase64%2c/9j/2wBDAAYEBQYFBAYGBQYHBwYIChAKCgkJChQODwwQFxQYGBcUFhYaHSUfGhsjHBYWICwgIyYnKSopGR8tMC0oMCUoKSj/2wBDAQcHBwoIChMKChMoGhYaKCgoKCgoKCgoKCgoKCgoKCgoKCgoKCgoKCgoKCgoKCgoKCgoKCgoKCgoKCgoKCgoKCj/wAARCABAAEADASIAAhEBAxEB/8QAHAAAAgIDAQEAAAAAAAAAAAAABQYEBwIDCAAB/8QANhAAAgEDAwIDBgQEBwAAAAAAAQIDBAURABIhBjETIkEHUWFxgZEUFTKxFkKh4SMzQ1TB0fD/xAAZAQACAwEAAAAAAAAAAAAAAAACAwABBAX/xAAiEQACAgICAQUBAAAAAAAAAAABAgADESESQQQTIjFRcZH/2gAMAwEAAhEDEQA/AOfKClmudQypNTq6rvzU1CxKQPTLEAn4a9SyyQ3KKqFNld%2bVjfIWTHcA9jr5UNV3W4zSzbp6qVi7HOSxxk/0GsKyWdglNNPM8MSgxxtIWVMgHyg8D6aRo6j9jcnww3OKx1M1BUSG3SyAT08bNwQTjeuMcY9/qNDTVtIJVaJGL8n0w3v1tp62emimp0nmjicchWwM/LtzqVFDSiRlJYyJEXJLYDYAIP15GpqCSeoxUKWh7fb6i3h6OtpwnjxzSeMlVIGBztOAqgZ4Oc9tFeqTd7V7S6G4Vs9BTXLw0qSsUKqkGE7GPsDj4c99LlJRQpQ/j5JPHiZiNqEoA3PAP7cemNClkl/FyPUAuzxkq7NzjHGlcfncPOxqXD1XdfxFgmrGqd35mdzP4e0TEZJ7cZBHY6BWG8VcFpjUNCjJLFKpnUeYLnIBPYYPYe8areOWQRZaRjtHAJ4Hp21PM58WPDrtCnG70G3%2b2hFYX4kaxmHujrN0pDbKWOROl7nWyFQZJ3qGCISDnyou5cfHsNKltFJLeKJ7hTTVVPBCZKqAkgSFVIOGXsOBzq0vaV1hV0lKsVHCUjqYlKylvMrHOVI%2bmNIXT9HUfnUUheE0y06Ryqzn/L8pIUfzY5BGlciBubEqD/2bLRYrdcaelnNxNDQ19W8C0Th3XCyKeXA7ANwSM6PSezm33Fy0UlTRolPISWjKF9u0LkHPB9SPf6afrZ1vHSdQGKljpRZBnYsVOqkDb6bR7weND/aZXmvtnVAjfxIUpI1oQgOXLFWkIAHYL9ftq63LNoyMnFcMvUTeha%2biunSPUtjqaaKNY7a1ZC0YBGF9/chslTn4HRWl6Wsd4s80FtgStvEHhpNCriDYp/mUscYHPz5%2bGlT2R3CSn62sdDVwlKK4q9I%2bc7XjdWU8fEgc6MTyVfRVHUTbYRWxl6KQ7SzSKDlGY5xgbRgYzzptozgjUVUDsHeJn1L7KBabY0wrEEjsw3SSrGgOPKgyce85JHbSdeulLnbKqKO4RQxbgHBSdJCUb9LEKScED3aO9a3WqvNDLArPUQTypWYH%2bm7whB8huzj56u%2bmsVjo7elRc7dGav8ADxQzzMWfcEQADbn58DSwzY1uXYq5HMY/IEltMctPFBLa7bIsY8qy75Nv1J%2bJ0CutjuIkD0NvtkcQ8u1YsAAZHr7yT9tWl%2bQUgTzVNapx2FQR%2b2sP4fpJ%2bJJa/Cj/AHTj9jrNxs%2b4z1ax1Kogsdyt3S9JGttSouseV3qgKhcjzE9%2bMtwPdoFceoqqz2iSO60jR1iblgSRNolTcQuAPTGMn4avOSzUaFdrVbY55qZP%2b9Dbp7P7HeComp2EoU/4u9mcA9wNxPHfjT6kZmx9wfXVBnc5/kvaS3q3Vc8G2keJ3g2v%2blmILAHsSORzq1LNS0t9iSSIb0CgsSDj5Eds5J%2b%2bpl59jVkl8CRq24mJM4XKDbnvzt9dTukbNS9NTXKy0cUkaiRauJnYsZEdQM5PqCpB%2bmmeQhAwZdXkLvj3K26zsi0cddV07BFmIp4o0jHIUgtnPYhgMEf86%2bxdbm7UAoYRVieQx7ow2%2bMNvXJBxxnk6fOsLTHckcou6RUKhGOFJPqf/emqyrunoLCglpWkepc7HDPjPqGGO3rrNWwGjGvycZnSLysw4XAHOR66zDskQBwzeuf66gUqkShjnC88j11ukqGV2xtwPeOP7a1BZz8z0juxLAgA4HBxqdRNvmmbuvAH20vTlxNF35bcfKBreOoKSgc08oladhvARRg5OB8tHQ6rZuR62ZfbGKlbcZInAYDBGkz2m1S2its94yFRHeCb4oRn798aMrfaOknJrJDDvHlyCc4HPb151G62oxe%2bmqmCKNHlC%2bNDvP8AMOR2%2bGR9darHSxCAYpUZCCRBlw8N4lmhYMkwDKwPcdwf20ide0tLFaTUs4VtwLQnJYgfqKjv2OfoNb%2blLwtdbjQIwFRSKGQFs5jJ4%2bxyPqNQep7i03iKiee3r4k8mBye6Jz9z8l9%2buNYvFiD1OtSSQCJ/9k=' /%3e%3c/svg%3e"},"path":"/author/wikanda-chansereekorn/"}]}}]}}},"context":{}}